[gd_scene load_steps=4 format=2]

[ext_resource path="res://platforms/Platform.gd" type="Script" id=1]
[ext_resource path="res://materials/DarkBlue.material" type="Material" id=2]

[sub_resource type="BoxShape" id=1]
resource_local_to_scene = true

[node name="Platform" type="Spatial"]
script = ExtResource( 1 )

[node name="Start" type="Position3D" parent="."]
transform = Transform( 1, 0, 0, 0, 1, 0, 0, 0, 1, 0, 0, 1 )

[node name="End" type="Position3D" parent="."]
transform = Transform( 1, 0, 0, 0, 1, 0, 0, 0, 1, 0, 0, -1 )

[node name="VisibilityNotifier" type="VisibilityNotifier" parent="."]

[node name="DeathZone" type="Area" parent="."]
collision_layer = 0
collision_mask = 2

[node name="CollisionShape" type="CollisionShape" parent="DeathZone"]
shape = SubResource( 1 )

[node name="PlatformGeometry" type="CSGCombiner" parent="."]
material_override = ExtResource( 2 )
use_in_baked_light = true
use_collision = true
collision_mask = 3
